%YAML 1.1
%TAG !u! tag:unity3d.com,2011:
--- !u!1045 &1
EditorBuildSettings:
  m_ObjectHideFlags: 0
  serializedVersion: 2
  m_Scenes:
  - enabled: 1
    path: Assets/Scenes/scene2-Menu.unity
    guid: 49be54bcb2d28a34eadb378d52b0d0ba
  - enabled: 1
    path: Assets/Scenes/scene3-Game.unity
    guid: 87796f7f4a29820418390ad3bb44b26b
  - enabled: 1
    path: Assets/Scenes/scene4-GameOver.unity
    guid: ff5b14bb692f38c41927002a3b35c5c0
  - enabled: 1
    path: Assets/Scenes/scene5-Options.unity
    guid: 2198ada2220e46f4f91d6ec5c7001552
  m_configObjects: {}
