%YAML 1.1
%TAG !u! tag:unity3d.com,2011:
--- !u!1001 &4143643762479918796
PrefabInstance:
  m_ObjectHideFlags: 0
  serializedVersion: 2
  m_Modification:
    m_TransformParent: {fileID: 0}
    m_Modifications:
    - target: {fileID: 1812103102538245143, guid: b89876277e6a9904eb9ba81d7b915ce4,
        type: 3}
      propertyPath: m_Name
      value: backday
      objectReference: {fileID: 0}
    - target: {fileID: 1812103102538245143, guid: b89876277e6a9904eb9ba81d7b915ce4,
        type: 3}
      propertyPath: m_TagString
      value: backday
      objectReference: {fileID: 0}
    - target: {fileID: 1812103102538245142, guid: b89876277e6a9904eb9ba81d7b915ce4,
        type: 3}
      propertyPath: m_LocalPosition.x
      value: 0
      objectReference: {fileID: 0}
    - target: {fileID: 1812103102538245142, guid: b89876277e6a9904eb9ba81d7b915ce4,
        type: 3}
      propertyPath: m_LocalPosition.y
      value: 0
      objectReference: {fileID: 0}
    - target: {fileID: 1812103102538245142, guid: b89876277e6a9904eb9ba81d7b915ce4,
        type: 3}
      propertyPath: m_LocalPosition.z
      value: 0
      objectReference: {fileID: 0}
    - target: {fileID: 1812103102538245142, guid: b89876277e6a9904eb9ba81d7b915ce4,
        type: 3}
      propertyPath: m_LocalRotation.x
      value: 0
      objectReference: {fileID: 0}
    - target: {fileID: 1812103102538245142, guid: b89876277e6a9904eb9ba81d7b915ce4,
        type: 3}
      propertyPath: m_LocalRotation.y
      value: 0
      objectReference: {fileID: 0}
    - target: {fileID: 1812103102538245142, guid: b89876277e6a9904eb9ba81d7b915ce4,
        type: 3}
      propertyPath: m_LocalRotation.z
      value: 0
      objectReference: {fileID: 0}
    - target: {fileID: 1812103102538245142, guid: b89876277e6a9904eb9ba81d7b915ce4,
        type: 3}
      propertyPath: m_LocalRotation.w
      value: 1
      objectReference: {fileID: 0}
    - target: {fileID: 1812103102538245142, guid: b89876277e6a9904eb9ba81d7b915ce4,
        type: 3}
      propertyPath: m_RootOrder
      value: 0
      objectReference: {fileID: 0}
    - target: {fileID: 1812103102538245142, guid: b89876277e6a9904eb9ba81d7b915ce4,
        type: 3}
      propertyPath: m_LocalEulerAnglesHint.x
      value: 0
      objectReference: {fileID: 0}
    - target: {fileID: 1812103102538245142, guid: b89876277e6a9904eb9ba81d7b915ce4,
        type: 3}
      propertyPath: m_LocalEulerAnglesHint.y
      value: 0
      objectReference: {fileID: 0}
    - target: {fileID: 1812103102538245142, guid: b89876277e6a9904eb9ba81d7b915ce4,
        type: 3}
      propertyPath: m_LocalEulerAnglesHint.z
      value: 0
      objectReference: {fileID: 0}
    - target: {fileID: 1812103103044037339, guid: b89876277e6a9904eb9ba81d7b915ce4,
        type: 3}
      propertyPath: m_Sprite
      value: 
      objectReference: {fileID: 21300002, guid: a96c92934dd95e5428c80b038060e7ae,
        type: 3}
    - target: {fileID: 1812103101595034478, guid: b89876277e6a9904eb9ba81d7b915ce4,
        type: 3}
      propertyPath: m_Sprite
      value: 
      objectReference: {fileID: 21300002, guid: a96c92934dd95e5428c80b038060e7ae,
        type: 3}
    - target: {fileID: 1812103102200777033, guid: b89876277e6a9904eb9ba81d7b915ce4,
        type: 3}
      propertyPath: m_Sprite
      value: 
      objectReference: {fileID: 21300002, guid: a96c92934dd95e5428c80b038060e7ae,
        type: 3}
    m_RemovedComponents: []
  m_SourcePrefab: {fileID: 100100000, guid: b89876277e6a9904eb9ba81d7b915ce4, type: 3}
